{
    "status": 1,
    "name": "JwtGrantError",
    "message": "We encountered a JSON web token error, which is likely not an issue with Salesforce CLI. Here’s the error: Error authenticating with JWT config due to: client identifier invalid",
    "exitCode": 1,
    "commandName": "Grant",
    "stack": "JwtGrantError: We encountered a JSON web token error, which is likely not an issue with Salesforce CLI. Here’s the error: Error authenticating with JWT config due to: client identifier invalid\n    at Function.create (C:\\Program Files\\sfdx\\client\\node_modules\\@salesforce\\core\\lib\\sfdxError.js:160:16)\n    at Grant.run (C:\\Program Files\\sfdx\\client\\node_modules\\@salesforce\\plugin-auth\\lib\\commands\\auth\\jwt\\grant.js:31:36)\n    at processTicksAndRejections (internal/process/task_queues.js:95:5)\n    at async Grant._run (C:\\Program Files\\sfdx\\client\\node_modules\\@salesforce\\command\\lib\\sfdxCommand.js:81:40)\n    at async Config.runCommand (C:\\Program Files\\sfdx\\client\\node_modules\\@oclif\\config\\lib\\config.js:173:24)\n    at async Main.run (C:\\Program Files\\sfdx\\client\\node_modules\\@oclif\\command\\lib\\main.js:27:9)\n    at async Main._run (C:\\Program Files\\sfdx\\client\\node_modules\\@oclif\\command\\lib\\command.js:43:20)\n    at async Object.run (C:\\Program Files\\sfdx\\client\\dist\\cli.js:114:21)",
    "warnings": []
  }