{
    "status": 0,
    "result": {
      "success": true,
      "compiled": true,
      "compileProblem": "",
      "exceptionMessage": "",
      "exceptionStackTrace": "",
      "line": -1,
      "column": -1,
      "logs": "52.0 APEX_CODE,FINEST;APEX_PROFILING,INFO;CALLOUT,INFO;DB,INFO;NBA,INFO;SYSTEM,DEBUG;VALIDATION,INFO;VISUALFORCE,INFO;WAVE,INFO;WORKFLOW,INFO\nExecute Anonymous: List<String> fscList = new List<String> {\nExecute Anonymous: 'FinServ_FinancialServicesCloudBasicPsl', \nExecute Anonymous: 
  'FinServ_FinancialServicesCloudStandardPsl', \nExecute Anonymous: 'FinancialServicesCloudExtensionPsl'\nExecute Anonymous: };\nExecute Anonymous: \nExecute Anonymous: Id userId = UserInfo.getUserId();\nExecute Anonymous: List<PermissionSetLicenseAssign> pslAssigns = new List<PermissionSetLicenseAssign>();\nExecute Anonymous: for(PermissionSetLicense psl: [SELECT Id FROM PermissionSetLicense WHERE DeveloperName IN :fscList]) {\nExecute Anonymous: 
      pslAssigns.add(new PermissionSetLicenseAssign(AssigneeId = userId, PermissionSetLicenseId = psl.Id));  \nExecute Anonymous: }\nExecute Anonymous: 
  \nExecute Anonymous: Database.Insert(pslAssigns, FALSE);\n11:23:26.14 (14803169)|EXECUTION_STARTED\n11:23:26.14 (14824397)|CODE_UNIT_STARTED|[EXTERNAL]|execute_anonymous_apex\n11:23:26.14 (15015801)|VARIABLE_SCOPE_BEGIN|[1]|fscList|List<String>|true|false\n11:23:26.14 (15133487)|VARIABLE_SCOPE_BEGIN|[8]|pslAssigns|List<PermissionSetLicenseAssign>|true|false\n11:23:26.14 (15152875)|VARIABLE_SCOPE_BEGIN|[7]|userId|Id|false|false\n11:23:26.14 (15315721)|HEAP_ALLOCATE|[79]|Bytes:3\n11:23:26.14 (15361775)|HEAP_ALLOCATE|[84]|Bytes:152\n11:23:26.14 (15387525)|HEAP_ALLOCATE|[399]|Bytes:408\n11:23:26.14 (15400090)|HEAP_ALLOCATE|[412]|Bytes:408\n11:23:26.14 (15410428)|HEAP_ALLOCATE|[520]|Bytes:48\n11:23:26.14 (15435529)|HEAP_ALLOCATE|[139]|Bytes:6\n11:23:26.14 (15460959)|HEAP_ALLOCATE|[EXTERNAL]|Bytes:19\n11:23:26.14 (15634174)|STATEMENT_EXECUTE|[1]\n11:23:26.14 (15642413)|STATEMENT_EXECUTE|[1]\n11:23:26.14 (15660508)|HEAP_ALLOCATE|[1]|Bytes:4\n11:23:26.14 (15728255)|HEAP_ALLOCATE|[2]|Bytes:38\n11:23:26.14 (15738114)|HEAP_ALLOCATE|[3]|Bytes:41\n11:23:26.14 (15742496)|HEAP_ALLOCATE|[4]|Bytes:34\n11:23:26.14 (15771632)|HEAP_ALLOCATE|[EXTERNAL]|Bytes:16\n11:23:26.14 (15840842)|VARIABLE_ASSIGNMENT|[1]|nxvqjbhwvw.fscList|[\"FinServ_FinancialSer (18 more) ...\",\"FinServ_FinancialSer (21 more) ...\",\"FinancialServicesClo (14 more) ...\"]|0x62498b6a\n11:23:26.14 (15848038)|STATEMENT_EXECUTE|[7]\n11:23:26.14 (15891072)|HEAP_ALLOCATE|[52]|Bytes:5\n11:23:26.14 (15931344)|HEAP_ALLOCATE|[58]|Bytes:5\n11:23:26.14 (15938942)|HEAP_ALLOCATE|[66]|Bytes:7\n11:23:26.14 (15961109)|SYSTEM_MODE_ENTER|false\n11:23:26.14 (15991439)|HEAP_ALLOCATE|[7]|Bytes:5\n11:23:26.14 (16040526)|HEAP_ALLOCATE|[7]|Bytes:97\n11:23:26.14 (16057815)|SYSTEM_METHOD_ENTRY|[1]|UserInfo.UserInfo()\n11:23:26.14 (16061923)|STATEMENT_EXECUTE|[1]\n11:23:26.14 (16070300)|SYSTEM_METHOD_EXIT|[1]|UserInfo\n11:23:26.14 (16092034)|METHOD_ENTRY|[7]||System.UserInfo.getUserId()\n11:23:26.14 (16134067)|METHOD_EXIT|[7]||System.UserInfo.getUserId()\n11:23:26.14 (16143307)|SYSTEM_MODE_EXIT|false\n11:23:26.14 (16158895)|HEAP_ALLOCATE|[7]|Bytes:4\n11:23:26.14 (16499665)|VARIABLE_ASSIGNMENT|[7]|nxvqjbhwvw.userId|\"0052z00000181s9AAA\"\n11:23:26.14 (16508206)|STATEMENT_EXECUTE|[8]\n11:23:26.14 (16523371)|HEAP_ALLOCATE|[8]|Bytes:4\n11:23:26.14 (16600194)|HEAP_ALLOCATE|[EXTERNAL]|Bytes:4\n11:23:26.14 (16614215)|VARIABLE_ASSIGNMENT|[8]|nxvqjbhwvw.pslAssigns|[]|0x16db4f75\n11:23:26.14 (16622214)|HEAP_ALLOCATE|[9]|Bytes:67\n11:23:26.14 (16640518)|HEAP_ALLOCATE|[9]|Bytes:4\n11:23:26.14 
  (16648825)|HEAP_ALLOCATE|[9]|Bytes:7\n11:23:26.14 (17005954)|SOQL_EXECUTE_BEGIN|[9]|Aggregations:0|SELECT Id FROM PermissionSetLicense WHERE DeveloperName IN :tmpVar1\n11:23:26.14 (26741802)|SOQL_EXECUTE_END|[9]|Rows:3\n11:23:26.14 (26778642)|HEAP_ALLOCATE|[EXTERNAL]|Bytes:16\n11:23:26.14 (27017490)|HEAP_ALLOCATE|[9]|Bytes:54\n11:23:26.14 (27027884)|HEAP_ALLOCATE|[9]|Bytes:8\n11:23:26.14 (27040957)|SYSTEM_METHOD_ENTRY|[7]|QueryLocatorIterator.QueryLocatorIterator()\n11:23:26.14 (27046539)|STATEMENT_EXECUTE|[7]\n11:23:26.14 (27055873)|SYSTEM_METHOD_EXIT|[7]|QueryLocatorIterator\n11:23:26.14 (27064777)|HEAP_ALLOCATE|[9]|Bytes:28\n11:23:26.14 (27169344)|HEAP_ALLOCATE|[9]|Bytes:16\n11:23:26.14 (27184943)|HEAP_ALLOCATE|[9]|Bytes:8\n11:23:26.14 (27189233)|HEAP_ALLOCATE|[9]|Bytes:8\n11:23:26.14 (27199450)|VARIABLE_SCOPE_BEGIN|[15]|this|Database.QueryLocatorIterator|true|false\n11:23:26.14 (27281647)|VARIABLE_ASSIGNMENT|[15]|this|{}|0x45f7138d\n11:23:26.14 (27288482)|VARIABLE_SCOPE_BEGIN|[15]|values|List<SObject>|true|false\n11:23:26.14 (27326799)|VARIABLE_ASSIGNMENT|[15]|values|[{\"Id\":\"0PL2z0000004Vv2GAE\"},{\"Id\":\"0PL2z0000004VokGAE\"},{\"Id\":\"0PL2z0000004VolGAE\"}]|0x400b2436\n11:23:26.14 (27332597)|VARIABLE_SCOPE_BEGIN|[15]|ql|Database.QueryLocator|true|false\n11:23:26.14 (27357585)|VARIABLE_ASSIGNMENT|[15]|ql|{\"query\":\"SELECT Id FROM Permi (47 more) ...\"}|0xec29573\n11:23:26.14 (27363489)|VARIABLE_SCOPE_BEGIN|[15]|totalNumRecords|Integer|false|false\n11:23:26.14 (27373156)|VARIABLE_ASSIGNMENT|[15]|totalNumRecords|3\n11:23:26.14 (27377349)|VARIABLE_SCOPE_BEGIN|[15]|queryMoreSize|Integer|false|false\n11:23:26.14 (27385227)|VARIABLE_ASSIGNMENT|[15]|queryMoreSize|49997\n11:23:26.14 (27487290)|HEAP_ALLOCATE|[9]|Bytes:28\n11:23:26.14 (27514171)|METHOD_ENTRY|[9]||Database.QueryLocatorIterator.hasNext()\n11:23:26.14 (27613784)|METHOD_EXIT|[9]||Database.QueryLocatorIterator.hasNext()\n11:23:26.14 (27621131)|METHOD_ENTRY|[9]||Database.QueryLocatorIterator.next()\n11:23:26.14 (27721714)|METHOD_EXIT|[9]||Database.QueryLocatorIterator.next()\n11:23:26.14 (27730684)|VARIABLE_SCOPE_BEGIN|[9]|psl|PermissionSetLicense|true|false\n11:23:26.14 (27747398)|VARIABLE_ASSIGNMENT|[9]|psl|{\"Id\":\"0PL2z0000004Vv2GAE\"}|0x52b49db3\n11:23:26.14 (27754851)|STATEMENT_EXECUTE|[9]\n11:23:26.14 (27757085)|STATEMENT_EXECUTE|[10]\n11:23:26.14 (27806503)|HEAP_ALLOCATE|[10]|Bytes:4\n11:23:26.14 (28010126)|VARIABLE_ASSIGNMENT|[10]|this.AssigneeId|\"0052z00000181s9AAA\"|0x51744449\n11:23:26.14 (28063900)|VARIABLE_ASSIGNMENT|[10]|this.PermissionSetLicenseId|\"0PL2z0000004Vv2GAE\"|0x51744449\n11:23:26.14 (28124819)|HEAP_ALLOCATE|[EXTERNAL]|Bytes:4\n11:23:26.14 (28138471)|METHOD_ENTRY|[9]||Database.QueryLocatorIterator.hasNext()\n11:23:26.14 (28167490)|METHOD_EXIT|[9]||Database.QueryLocatorIterator.hasNext()\n11:23:26.14 (28172894)|METHOD_ENTRY|[9]||Database.QueryLocatorIterator.next()\n11:23:26.14 (28241965)|METHOD_EXIT|[9]||Database.QueryLocatorIterator.next()\n11:23:26.14 (28248789)|VARIABLE_SCOPE_BEGIN|[9]|psl|PermissionSetLicense|true|false\n11:23:26.14 (28265524)|VARIABLE_ASSIGNMENT|[9]|psl|{\"Id\":\"0PL2z0000004VokGAE\"}|0x1c8778a5\n11:23:26.14 (28271773)|STATEMENT_EXECUTE|[9]\n11:23:26.14 (28273771)|STATEMENT_EXECUTE|[10]\n11:23:26.14 (28286717)|HEAP_ALLOCATE|[10]|Bytes:4\n11:23:26.14 (28315497)|VARIABLE_ASSIGNMENT|[10]|this.AssigneeId|\"0052z00000181s9AAA\"|0x1d1df0e1\n11:23:26.14 (28337794)|VARIABLE_ASSIGNMENT|[10]|this.PermissionSetLicenseId|\"0PL2z0000004VokGAE\"|0x1d1df0e1\n11:23:26.14 (28351442)|HEAP_ALLOCATE|[EXTERNAL]|Bytes:4\n11:23:26.14 (28359879)|METHOD_ENTRY|[9]||Database.QueryLocatorIterator.hasNext()\n11:23:26.14 (28378117)|METHOD_EXIT|[9]||Database.QueryLocatorIterator.hasNext()\n11:23:26.14 (28382592)|METHOD_ENTRY|[9]||Database.QueryLocatorIterator.next()\n11:23:26.14 (28430549)|METHOD_EXIT|[9]||Database.QueryLocatorIterator.next()\n11:23:26.14 (28435613)|VARIABLE_SCOPE_BEGIN|[9]|psl|PermissionSetLicense|true|false\n11:23:26.14 (28447826)|VARIABLE_ASSIGNMENT|[9]|psl|{\"Id\":\"0PL2z0000004VolGAE\"}|0x3654188d\n11:23:26.14 (28453219)|STATEMENT_EXECUTE|[9]\n11:23:26.14 (28455103)|STATEMENT_EXECUTE|[10]\n11:23:26.14 (28462466)|HEAP_ALLOCATE|[10]|Bytes:4\n11:23:26.14 (28481874)|VARIABLE_ASSIGNMENT|[10]|this.AssigneeId|\"0052z00000181s9AAA\"|0x3a193248\n11:23:26.14 (28500840)|VARIABLE_ASSIGNMENT|[10]|this.PermissionSetLicenseId|\"0PL2z0000004VolGAE\"|0x3a193248\n11:23:26.14 (28511981)|HEAP_ALLOCATE|[EXTERNAL]|Bytes:4\n11:23:26.14 (28531615)|METHOD_ENTRY|[9]||Database.QueryLocatorIterator.hasNext()\n11:23:26.14 (28544429)|METHOD_EXIT|[9]||Database.QueryLocatorIterator.hasNext()\n11:23:26.14 (28552210)|VARIABLE_ASSIGNMENT|[9]|psl|null|\n11:23:26.14 (28574601)|STATEMENT_EXECUTE|[13]\n11:23:26.14 (28650591)|DML_BEGIN|[13]|Op:Insert|Type:PermissionSetLicenseAssign|Rows:3\n11:23:26.14 (28691681)|HEAP_ALLOCATE|[EXTERNAL]|Bytes:16\n11:23:26.14 (102690418)|DML_END|[13]\n11:23:26.14 (102779696)|HEAP_ALLOCATE|[EXTERNAL]|Bytes:16\n11:23:26.115 (115104120)|CUMULATIVE_LIMIT_USAGE\n11:23:26.115 (115104120)|LIMIT_USAGE_FOR_NS|(default)|\n  Number of SOQL queries: 0 out of 100\n  Number of query rows: 0 out of 50000\n  Number of SOSL queries: 0 out of 20\n  Number of DML statements: 
  0 out of 150\n  Number of Publish Immediate DML: 0 out of 150\n  Number of DML rows: 0 out of 10000\n  Maximum CPU time: 0 out of 10000\n  Maximum heap size: 0 out of 6000000\n  Number of callouts: 0 out of 100\n  Number of Email Invocations: 0 out of 10\n  Number of future calls: 0 out of 50\n  Number of queueable jobs added to the queue: 0 out of 50\n  Number of Mobile Apex push calls: 0 out of 10\n\n11:23:26.115 (115104120)|LIMIT_USAGE_FOR_NS|nxvqjbhwvw|\n  Number of SOQL queries: 1 out of 100\n  Number of query rows: 3 out of 50000\n  Number of SOSL queries: 0 out of 20\n  Number of DML statements: 1 out of 150\n  Number of Publish Immediate DML: 0 out of 150\n  Number of DML rows: 3 out of 10000\n  Maximum CPU time: 0 out of 10000\n  Maximum heap size: 0 out of 6000000\n  Number of callouts: 0 out of 100\n  Number of Email Invocations: 0 out of 10\n  Number of future calls: 0 out of 50\n  Number of queueable jobs added to the queue: 0 out of 50\n  Number of Mobile Apex push calls: 0 out of 10\n\n11:23:26.115 (115104120)|CUMULATIVE_LIMIT_USAGE_END\n\n11:23:26.14 (115173231)|CODE_UNIT_FINISHED|execute_anonymous_apex\n11:23:26.14 (115194358)|EXECUTION_FINISHED\n"
    }
  }
==== Check for 0 and "failures"
{
    "status": 0,
    "result": {
        "success": false,
        "compiled": false,
        "compileProblem": "Unexpected token '<'.",
        "exceptionMessage": "",
        "exceptionStackTrace": "",
        "line": "1",
        "column": "5",
        "logs": ""
    }
}