{
    "status": 1,
    "name": "Error",
    "message": "The Subscriber Package Version Id or Package Version Id: 0Ho4L000000blblSAA isn't defined in the sfdx-project.json. Add it to the packageDirectories section and add the alias to packageAliases with its 04t or 05i ID.",        
    "exitCode": 1,
    "commandName": "PackageVersionPromoteCommand",
    "stack": "Error: The Subscriber Package Version Id or Package Version Id: 0Ho4L000000blblSAA isn't defined in the sfdx-project.json. Add it to the packageDirectories section and add the alias to packageAliases with its 04t or 05i ID.\n    at Object.validateId (C:\\Users\\mheath\\AppData\\Local\\sfdx\\client\\7.112.1-b99fa53\\node_modules\\salesforce-alm\\dist\\lib\\package\\packageUtils.js:75:19)\n    at PackageVersionPromoteCommand._execute (C:\\Users\\mheath\\AppData\\Local\\sfdx\\client\\7.112.1-b99fa53\\node_modules\\salesforce-alm\\dist\\lib\\package\\packageVersionPromoteCommand.js:33:18)\n    at PackageVersionPromoteCommand.execute (C:\\Users\\mheath\\AppData\\Local\\sfdx\\client\\7.112.1-b99fa53\\node_modules\\salesforce-alm\\dist\\lib\\package\\packageVersionPromoteCommand.js:18:21)\n    at PackageVersionPromoteCommand.execLegacyCommand (C:\\Users\\mheath\\AppData\\Local\\sfdx\\client\\7.112.1-b99fa53\\node_modules\\salesforce-alm\\dist\\ToolbeltCommand.js:149:43)\n    at PackageVersionPromoteCommand.run (C:\\Users\\mheath\\AppData\\Local\\sfdx\\client\\7.112.1-b99fa53\\node_modules\\salesforce-alm\\dist\\commands\\force\\package\\version\\promote.js:23:21)\n    at async PackageVersionPromoteCommand._run (C:\\Users\\mheath\\AppData\\Local\\sfdx\\client\\7.112.1-b99fa53\\node_modules\\salesforce-alm\\node_modules\\@salesforce\\command\\lib\\sfdxCommand.js:81:40)\n    at async Config.runCommand (C:\\Users\\mheath\\AppData\\Local\\sfdx\\client\\7.112.1-b99fa53\\node_modules\\@oclif\\config\\lib\\config.js:173:24)\n    at async SfdxMain.run (C:\\Users\\mheath\\AppData\\Local\\sfdx\\client\\7.112.1-b99fa53\\node_modules\\@oclif\\command\\lib\\main.js:27:9)\n    at async SfdxMain._run (C:\\Users\\mheath\\AppData\\Local\\sfdx\\client\\7.112.1-b99fa53\\node_modules\\@oclif\\command\\lib\\command.js:43:20)\n    at async Object.run (C:\\Users\\mheath\\AppData\\Local\\sfdx\\client\\7.112.1-b99fa53\\dist\\cli.js:162:47)\nOuter stack:\n    at Function.wrap (C:\\Users\\mheath\\AppData\\Local\\sfdx\\client\\7.112.1-b99fa53\\node_modules\\salesforce-alm\\node_modules\\@salesforce\\core\\lib\\sfdxError.js:171:27)\n    at PackageVersionPromoteCommand.catch (C:\\Users\\mheath\\AppData\\Local\\sfdx\\client\\7.112.1-b99fa53\\node_modules\\salesforce-alm\\dist\\ToolbeltCommand.js:253:46)\n at async PackageVersionPromoteCommand._run (C:\\Users\\mheath\\AppData\\Local\\sfdx\\client\\7.112.1-b99fa53\\node_modules\\salesforce-alm\\node_modules\\@salesforce\\command\\lib\\sfdxCommand.js:85:13)\n    at async Config.runCommand (C:\\Users\\mheath\\AppData\\Local\\sfdx\\client\\7.112.1-b99fa53\\node_modules\\@oclif\\config\\lib\\config.js:173:24)\n    at async SfdxMain.run (C:\\Users\\mheath\\AppData\\Local\\sfdx\\client\\7.112.1-b99fa53\\node_modules\\@oclif\\command\\lib\\main.js:27:9)\n    at async SfdxMain._run (C:\\Users\\mheath\\AppData\\Local\\sfdx\\client\\7.112.1-b99fa53\\node_modules\\@oclif\\command\\lib\\command.js:43:20)\n at async Object.run (C:\\Users\\mheath\\AppData\\Local\\sfdx\\client\\7.112.1-b99fa53\\dist\\cli.js:162:47)",
    "warnings": []
  }